Lecture 11
…
Resample observations.

Refit the clustering on each resample.

Compare the resulting partition with the original.

A stable cluster should survive small perturbations to the data.

Bootstrap stability on monsters

The adjusted Rand index compares every pair of monsters across two partitions: did that pair stay together, or stay apart, in both clusterings? It then subtracts the agreement expected by chance, \[
\mathrm{ARI} = \frac{\sum_{ij}\binom{n_{ij}}{2} - E}{\frac{1}{2}\left[\sum_i \binom{a_i}{2} + \sum_j \binom{b_j}{2}\right] - E},
\] so 1 means a perfect match to the baseline clustering, 0 means about as much agreement as random assignment, and negative values mean worse than random agreement.

#> # A tibble: 35 × 1
#>    bootstrap_ari
#>            <dbl>
#>  1       0.23158
#>  2       0.45291
#>  3       0.22194
#>  4       0.18459
#>  5       0.42625
#>  6       0.58459
#>  7       0.50456
#>  8       0.32512
#>  9       0.26862
#> 10       0.51591
#> # ℹ 25 more rows
…
