Chapter 6 Classification | Data mining
…
library(rsample)
wine <- read_csv("../data/wine.csv") |>
  mutate(Cultivar = factor(Cultivar))

set.seed(2021)
split <- initial_split(wine, prop=100/178)
wine.train <- training(split)
wine.test <- testing(split)
wine.train

#> # A tibble: 100 × 14
#>    Cultivar Alcohol Malic   Ash Alc.Ash    Mg Phenols  Flav Non.Flav Proan
#>    <fct>      <dbl> <dbl> <dbl>   <dbl> <dbl>   <dbl> <dbl>    <dbl> <dbl>
#>  1 C          12.51  1.24  2.25    17.5    85    2     0.58     0.6   1.25
#>  2 C          13.73  4.36  2.26    22.5    88    1.28  0.47     0.52  1.15
#>  3 C          13.71  5.65  2.45    20.5    95    1.68  0.61     0.52  1.06
#>  4 C          12.84  2.96  2.61    24     101    2.32  0.6      0.53  0.81
#>  5 B          12.21  1.19  1.75    16.8   151    1.85  1.28     0.14  2.5 
#>  6 C          13.17  2.59  2.37    20     120    1.65  0.68     0.53  1.46
#>  7 B          12.6   1.34  1.9     18.5    88    1.45  1.36     0.29  1.35
#>  8 B          11.61  1.35  2.7     20      94    2.74  2.92     0.29  2.49
#>  9 B          13.34  0.94  2.36    17     110    2.53  1.3      0.55  0.42
#> 10 B          12.34  2.45  2.46    21      98    2.56  2.11     0.34  1.31
#> # ℹ 90 more rows
#> # ℹ 4 more variables: Colour <dbl>, Hue <dbl>, ODRatio <dbl>, Proline <dbl>
…
Alternatively, we can just use the tidymodels framework with the
logistic_reg() function in place of glm().

Example 6.9  More on Classifying the Swiss Bank Notes data

We continue our example on the Swiss bank notes by using the output
from glm() to compute the class probabilities ourselves:

library(broom)
swiss.glm.2 |> augment(newdata=swiss.test) |>
  mutate(.pred_genuine = 1/(1 + exp(-.fitted)))

#> # A tibble: 80 × 5
#>    margin diagonal type     .fitted .pred_genuine
#>     <dbl>    <dbl> <fct>      <dbl>         <dbl>
#>  1    8.7    137.8 forged  -18.767     7.0707 e-9
#>  2    8.9    142.3 genuine  13.208     1.00000e+0
#>  3   10.3    139.7 forged  -12.723     2.9821 e-6
#>  4   10.2    139.6 forged  -12.963     2.3447 e-6
#>  5   10.1    139.2 forged  -15.401     2.0483 e-7
#>  6   10.6    139.7 forged  -14.199     6.8157 e-7
#>  7    9.1    141.5 genuine   6.3648    9.9828 e-1
#>  8   10.4    140.3 forged   -8.8203    1.4769 e-4
#>  9    7.9    140.9 genuine   7.8741    9.9962 e-1
#> 10    8      139.6 genuine  -2.1396    1.0531 e-1
#> # ℹ 70 more rows
…
Ofcourse, the tidymodels framework takes care of this for us, so if we
instead utilise our existing framework knowledge, we can get the same
predictions as we’re used to:

swiss.lr.2 <- logistic_reg() |>
  fit(type ~ ., data=swiss.train)
swiss.lr.2.pred <- swiss.lr.2 |>
  augment(new_data=swiss.test)
swiss.lr.2.pred

#> # A tibble: 80 × 6
#>    .pred_class .pred_forged .pred_genuine margin diagonal type   
#>    <fct>              <dbl>         <dbl>  <dbl>    <dbl> <fct>  
#>  1 forged      1.00000         7.0707 e-9    8.7    137.8 forged 
#>  2 genuine     0.0000018354    1.00000e+0    8.9    142.3 genuine
#>  3 forged      1.00000         2.9821 e-6   10.3    139.7 forged 
#>  4 forged      1.00000         2.3447 e-6   10.2    139.6 forged 
#>  5 forged      1.00000         2.0483 e-7   10.1    139.2 forged 
#>  6 forged      1.00000         6.8157 e-7   10.6    139.7 forged 
#>  7 genuine     0.0017181       9.9828 e-1    9.1    141.5 genuine
#>  8 forged      0.99985         1.4769 e-4   10.4    140.3 forged 
#>  9 genuine     0.00038034      9.9962 e-1    7.9    140.9 genuine
#> 10 forged      0.89469         1.0531 e-1    8      139.6 genuine
#> # ℹ 70 more rows
…
