Chapter 2 Data Acquisition and Processing | Data mining
…
fossils <- read_csv(file="../data/fossils.csv")

#> Rows: 27 Columns: 2
#> ── Column specification ────────────────────────────────────────────────────────
#> Delimiter: ","
#> dbl (2): bite, species
#> 
#> ℹ Use `spec()` to retrieve the full column specification for this data.
#> ℹ Specify the column types or set `show_col_types = FALSE` to quiet this message.

fossils

#> # A tibble: 27 × 2
#>     bite species
#>    <dbl>   <dbl>
#>  1 17.5        1
#>  2 15.62       1
#>  3 11.68       1
#>  4 13.61       1
#>  5 11.63       1
#>  6 14.28       1
#>  7  9.72       1
#>  8  8.76       1
#>  9 16.6        1
#> 10 15.16       1
#> # ℹ 17 more rows

fossils |> mutate(sqrt(species))

#> # A tibble: 27 × 3
#>     bite species `sqrt(species)`
#>    <dbl>   <dbl>           <dbl>
#>  1 17.5        1               1
#>  2 15.62       1               1
#>  3 11.68       1               1
#>  4 13.61       1               1
#>  5 11.63       1               1
#>  6 14.28       1               1
#>  7  9.72       1               1
#>  8  8.76       1               1
#>  9 16.6        1               1
#> 10 15.16       1               1
#> # ℹ 17 more rows

fixed_fossils <- fossils |> mutate(species = as.factor(species))
fixed_fossils

#> # A tibble: 27 × 2
#>     bite species
#>    <dbl> <fct>  
#>  1 17.5  1      
#>  2 15.62 1      
#>  3 11.68 1      
#>  4 13.61 1      
#>  5 11.63 1      
#>  6 14.28 1      
#>  7  9.72 1      
#>  8  8.76 1      
#>  9 16.6  1      
#> 10 15.16 1      
#> # ℹ 17 more rows
…
