Chapter 4 Prediction | Data mining
…
Unfortunately, this isn’t tidy - the output is not a data.frame, so we
can’t just pass this across to ggplot2 for plotting.

A better solution is to use augment() from the broom package. The nice thing
about broom is it provides a consistent interface across multiple model types,
it works not just for the lm() function but for many others. As the name
suggests, instead of just returning the prediction information, it augments
the data we supply with the predictions. The augmented columns all start with a
period (.).

wage.tidypred <- augment(wage.lm, newdata=wage.test, interval="prediction")
wage.tidypred |> select(starts_with("."), everything())

#> # A tibble: 134 × 15
#>    .fitted   .lower .upper  .resid   EDU SOUTH SEX     EXP UNION  WAGE   AGE
#>      <dbl>    <dbl>  <dbl>   <dbl> <dbl> <dbl> <chr> <dbl> <dbl> <dbl> <dbl>
#>  1  8.3771 -0.10719 16.861 -4.6271    11     0 M        11     0  3.75    28
#>  2  9.0166  0.60280 17.430 -1.0166    12     0 F        43     1  8       61
#>  3  8.4996  0.17637 16.823 -2.4996    13     1 M         7     0  6       26
#>  4 15.155   6.6854  23.625  7.6749    18     0 F        37     0 22.83    61
#>  5  8.1522 -0.25014 16.555 -3.0022    13     1 M         1     1  5.15    20
#>  6 10.610   2.3114  18.909 -4.4603    16     0 F        16     0  6.15    38
#>  7  6.9590 -1.3276  15.246 -3.9590    12     1 F        28     0  3       46
#>  8 11.641   3.0315  20.251 -6.6413    14     0 M         0     0  5       20
#>  9 11.561   3.2827  19.838 -1.7005    15     0 M        13     0  9.86    34
#> 10 13.685   5.2854  22.084 -7.4347    18     0 M        27     0  6.25    51
#> # ℹ 124 more rows
#> # ℹ 4 more variables: RACE <chr>, OCCUP <chr>, SECTOR <chr>, MARRIED <chr>
…
We can obtain predictions from the fitted regression tree by applying
the predict command36.

wage.rp.pred <- wage.test |>
  bind_cols(.pred = predict(wage.rp, newdata=wage.test))
wage.rp.pred |> select(.pred, WAGE, everything())

#> # A tibble: 134 × 12
#>      .pred  WAGE   EDU SOUTH SEX     EXP UNION   AGE RACE  OCCUP  SECTOR MARRIED
#>      <dbl> <dbl> <dbl> <dbl> <chr> <dbl> <dbl> <dbl> <chr> <chr>  <chr>  <chr>  
#>  1  6.9289  3.75    11     0 M        11     0    28 White Other  Const… No     
#>  2  7.5767  8       12     0 F        43     1    61 Other Servi… Other  Yes    
#>  3  6.9289  6       13     1 M         7     0    26 White Other  Manuf… Yes    
#>  4 12.175  22.83    18     0 F        37     0    61 White Profe… Manuf… No     
#>  5 11.031   5.15    13     1 M         1     1    20 White Servi… Other  No     
#>  6 11.628   6.15    16     0 F        16     0    38 White Profe… Other  No     
#>  7  6.9289  3       12     1 F        28     0    46 White Cleri… Other  Yes    
#>  8 10.880   5       14     0 M         0     0    20 White Profe… Const… Yes    
#>  9 10.880   9.86    15     0 M        13     0    34 White Profe… Other  Yes    
#> 10 16.884   6.25    18     0 M        27     0    51 Other Profe… Other  Yes    
#> # ℹ 124 more rows
…
